Biostat 203B Homework 4
…
Perform a data quality check of the ICU stays data. Discard variables with substantial missingness, say >5000 NAs. Replace apparent data entry errors by NAs.

Solution First, read in data to icu_cohort:

icu_cohort <- readRDS("icu_cohort.rds")

Then, check which variables have >5000 NA values:

as_tibble(colSums(is.na(icu_cohort))) %>%
  rename(number_missing = value) %>%
  mutate(variable = colnames(icu_cohort)) %>%
  arrange(desc(number_missing)) %>%
  print()

## # A tibble: 46 x 2
##    number_missing variable                        
##             <dbl> <chr>                           
##  1          50048 dod                             
##  2          44872 deathtime                       
##  3          29019 arterial_blood_pressure_systolic
##  4          28897 arterial_blood_pressure_mean    
##  5          19843 lactate                         
##  6          18462 edregtime                       
##  7          18462 edouttime                       
##  8           4176 marital_status                  
##  9           2374 calcium                         
## 10           1032 wbc                             
## #  with 36 more rows
…
Drop the variables:

vars_to_drop <- c("dod", "deathtime", "arterial_blood_pressure_systolic",
               "arterial_blood_pressure_mean", "lactate", "edregtime",
               "edouttime", "subject_id", "stay_id", "hadm_id", "intime",
               "outtime", "last_careunit", "first_careunit", "los",
               "dischtime", "admittime", "language", "anchor_year_group",
               "anchor_year", "anchor_age", "hospital_expire_flag", "insurance",
               "discharge_location", "admission_location", "admission_type")

icu_cohort <- icu_cohort %>%
  select(-all_of(vars_to_drop)) %>% 
  print()

## # A tibble: 50,048 x 20
##    marital_status ethnicity gender age_at_adm bicarbonate calcium chloride
##    <chr>          <chr>     <chr>       <dbl>       <dbl>   <dbl>    <dbl>
##  1 MARRIED        BLACK/AF F              76          23     9.2      103
##  2 SINGLE         UNKNOWN   M              51          24     9.5      109
##  3 MARRIED        WHITE     F              61          19     8        107
##  4 MARRIED        HISPANIC M              58          23     7.5      109
##  5 MARRIED        BLACK/AF M              70          26     9.7      103
##  6 MARRIED        UNKNOWN   M              78          23     8.4      113
##  7 SINGLE         WHITE     M              40          26     7.7      107
##  8 MARRIED        BLACK/AF M              73          19     8.2      108
##  9 SINGLE         BLACK/AF F              58          33    10        103
## 10 MARRIED        WHITE     F              60          21     9        106
## #  with 50,038 more rows, and 13 more variables: creatinine <dbl>,
## #   glucose <dbl>, magnesium <dbl>, potassium <dbl>, sodium <dbl>,
## #   hematocrit <dbl>, wbc <dbl>, heart_rate <dbl>,
## #   non_invasive_blood_pressure_systolic <dbl>,
## #   non_invasive_blood_pressure_mean <dbl>, respiratory_rate <dbl>,
## #   temperature_fahrenheit <dbl>, death_in_month <lgl>
…
Im skeptical about the numbers in the 200s, but I think 941 is the only unambiguous data entry error. Heart rates of 0 might be a mistake, but they could also be a legitimate medical event, so I wont discard those values.

Mean Blood Pressure

icu_cohort %>%
  filter(non_invasive_blood_pressure_mean > 300 | non_invasive_blood_pressure_mean < 25) %>%
  select(non_invasive_blood_pressure_mean) %>%
  arrange(desc(non_invasive_blood_pressure_mean)) %>%
  print()

## # A tibble: 39 x 1
##    non_invasive_blood_pressure_mean
##                               <dbl>
##  1                           140119
##  2                           120130
##  3                             6116
##  4                              936
##  5                               24
##  6                               24
##  7                               24
##  8                               23
##  9                               23
## 10                               22
## #  with 29 more rows
…
For ethnicity, there are NA values in hiding - Unknown and Unable to obtain. These values shouldnt be predictivive, but multiple imputation also seems a bit questionable. I decided to leave these values as is.

Temperature

icu_cohort %>%
  filter(temperature_fahrenheit < 90) %>%
  select(heart_rate, temperature_fahrenheit, respiratory_rate) %>%
  print()

## # A tibble: 126 x 3
##    heart_rate temperature_fahrenheit respiratory_rate
##         <dbl>                  <dbl>            <dbl>
##  1         94                   34.5               28
##  2         56                   32.9               22
##  3         73                    0                 19
##  4        100                   81.2               14
##  5         70                   36.2               14
##  6         74                   80                 11
##  7         84                   35.7               10
##  8        106                   59.7               23
##  9         98                   34.3               26
## 10         95                   37.6               17
## #  with 116 more rows
…
