Biostat 203B Homework 2
…
icu_stays %>%
  print()

## # A tibble: 69,619 x 8
##    subject_id hadm_id stay_id first_careunit last_careunit intime             
##         <dbl>   <dbl>   <dbl> <chr>          <chr>         <dttm>             
##  1   17823467  2.76e7  3.60e7 Coronary Care Coronary Car 2138-05-09 05:08:00
##  2   15772648  2.61e7  3.96e7 Trauma SICU ( Trauma SICU  2146-06-18 18:35:00
##  3   13713711  2.58e7  3.64e7 Trauma SICU ( Trauma SICU  2157-09-15 15:30:00
##  4   13173210  2.23e7  3.82e7 Coronary Care Coronary Car 2178-02-12 17:13:50
##  5   10213765  2.85e7  3.98e7 Trauma SICU ( Trauma SICU  2113-04-10 14:11:00
##  6   17530304  2.18e7  3.58e7 Trauma SICU ( Trauma SICU  2129-03-21 07:09:00
##  7   10297774  2.04e7  3.78e7 Coronary Care Coronary Car 2194-05-10 21:35:40
##  8   16766597  2.12e7  3.93e7 Trauma SICU ( Trauma SICU  2115-07-11 23:15:59
##  9   17684317  2.87e7  3.70e7 Trauma SICU ( Trauma SICU  2148-04-14 22:03:00
## 10   15693895  2.12e7  3.48e7 Surgical Inte Surgical Int 2147-06-02 23:31:46
## #  with 69,609 more rows, and 2 more variables: outtime <dttm>, los <dbl>
…
## [1] 50048

There are 50048 unique subject_id values. This is less than the total number of observations, which means that some individuals have had multiple ICU stays, and are present two or more times in the data.

icu_stays %>%
  count(subject_id) %>%
  rename(number_of_stays = n) %>%
  count(number_of_stays) %>% 
  rename(number_of_patients = n) %>%
  arrange(desc(number_of_stays)) %>% 
  print()

## # A tibble: 28 x 2
##    number_of_stays number_of_patients
##              <int>              <int>
##  1              33                  1
##  2              30                  1
##  3              29                  1
##  4              26                  1
##  5              25                  1
##  6              24                  1
##  7              23                  2
##  8              22                  2
##  9              20                  2
## 10              19                  1
## #  with 18 more rows

One patient has had 33 ICU stays! However, the majority of patients have a count of 1, 2, or 3 stays.

Visualize length of stay, which is coded as the the los variable. In my initial plot, it appeared that the mass of observations had short stays (less than 30 days), but there were a few extreme outlying values that made the plot hard to interpret. I want to see how common these long stays are.

icu_stays %>%
  filter(los >= 50) %>%
  arrange(desc(los)) %>%
  select(los)

## # A tibble: 112 x 1
##      los
##    <dbl>
##  1  599.
##  2  294.
##  3  236.
##  4  223.
##  5  141.
##  6  134.
##  7  114.
##  8  110.
##  9  107.
## 10  103.
## #  with 102 more rows
…
death

Note it is possible that one patient (uniquely identified by the SUBJECT_ID) is admitted into hospital multiple times. When summarizing some demographic information, it makes sense to summarize based on unique patients.

Solution

First, we need to read in the admissions data. This dataset will have all admissions:

admissions <- read_csv(str_c(mimic_path, "/core/admissions.csv.gz")) 

admissions %>%
  print()  

## # A tibble: 524,520 x 15
##    subject_id hadm_id admittime           dischtime          
##         <dbl>   <dbl> <dttm>              <dttm>             
##  1   12427812  2.16e7 2184-01-06 11:51:00 2184-01-10 11:45:00
##  2   14029832  2.21e7 2120-01-18 01:28:00 2120-01-20 16:13:00
##  3   14495017  2.25e7 2175-01-28 15:41:00 2175-01-29 16:00:00
##  4   13676048  2.39e7 2193-01-19 05:27:00 2193-01-24 18:59:00
##  5   13831972  2.78e7 2131-01-27 04:03:00 2131-01-27 05:39:00
##  6   18523038  2.54e7 2142-08-26 17:14:00 2142-08-27 10:00:00
##  7   16705931  2.06e7 2174-10-24 11:30:00 2174-10-24 18:45:00
##  8   19963742  2.50e7 2171-07-04 15:58:00 2171-07-05 13:37:00
##  9   10903424  2.26e7 2181-01-31 13:09:00 2181-01-31 13:42:00
## 10   15030422  2.20e7 2149-09-21 23:54:00 2149-09-22 03:59:00
## #  with 524,510 more rows, and 11 more variables: deathtime <dttm>,
## #   admission_type <chr>, admission_location <chr>, discharge_location <chr>,
## #   insurance <chr>, language <chr>, marital_status <chr>, ethnicity <chr>,
## #   edregtime <dttm>, edouttime <dttm>, hospital_expire_flag <dbl>
…
To manually inspect:

admissions %>%
  count(subject_id) %>%
  rename(number_of_stays = n) %>%
  count(number_of_stays) %>% 
  rename(number_of_patients = n) %>%
  arrange(desc(number_of_stays)) %>% 
  print()

## # A tibble: 95 x 2
##    number_of_stays number_of_patients
##              <int>              <int>
##  1             238                  1
##  2             185                  1
##  3             163                  1
##  4             142                  1
##  5             130                  1
##  6             129                  1
##  7              98                  1
##  8              97                  1
##  9              95                  1
## 10              94                  1
## #  with 85 more rows
…
## 
##  Column specification 
## cols(
##   subject_id = col_double(),
##   gender = col_character(),
##   anchor_age = col_double(),
##   anchor_year = col_double(),
##   anchor_year_group = col_character(),
##   dod = col_logical()
## )

patients %>%
  print(width = Inf)

## # A tibble: 383,220 x 6
##    subject_id gender anchor_age anchor_year anchor_year_group dod  
##         <dbl> <chr>       <dbl>       <dbl> <chr>             <lgl>
##  1   10002723 F               0        2128 2017 - 2019       NA   
##  2   10003939 M               0        2184 2008 - 2010       NA   
##  3   10004222 M               0        2161 2014 - 2016       NA   
##  4   10005325 F               0        2154 2011 - 2013       NA   
##  5   10007338 F               0        2153 2017 - 2019       NA   
##  6   10008101 M               0        2142 2008 - 2010       NA   
##  7   10009872 F               0        2168 2014 - 2016       NA   
##  8   10011333 F               0        2132 2014 - 2016       NA   
##  9   10011879 M               0        2158 2014 - 2016       NA   
## 10   10012663 F               0        2171 2011 - 2013       NA   
## #  with 383,210 more rows
…
Im curious about the people with age coded as 0:

ids <- patients %>%
  filter(anchor_age == 0) %>%
  select(subject_id) %>%
  .$subject_id

age_0 <- admissions %>%
  filter(subject_id %in% ids) %>%
  print()

## # A tibble: 61,630 x 15
##    subject_id hadm_id admittime           dischtime          
##         <dbl>   <dbl> <dttm>              <dttm>             
##  1   14495017  2.25e7 2175-01-28 15:41:00 2175-01-29 16:00:00
##  2   17789538  2.38e7 2163-02-06 17:12:00 2163-02-08 13:53:00
##  3   11368225  2.18e7 2174-07-09 05:07:00 2174-07-11 13:13:00
##  4   17326737  2.82e7 2140-05-29 10:40:00 2140-06-01 10:35:00
##  5   17072332  2.71e7 2113-01-17 20:23:00 2113-01-19 15:27:00
##  6   10262769  2.76e7 2158-06-04 15:04:00 2158-06-08 12:10:00
##  7   10139885  2.52e7 2127-04-28 01:04:00 2127-04-29 11:30:00
##  8   16176338  2.54e7 2143-06-05 00:24:00 2143-06-07 15:06:00
##  9   18742772  2.23e7 2122-09-01 11:58:00 2122-09-03 12:15:00
## 10   10210000  2.83e7 2155-05-26 01:22:00 2155-05-29 11:55:00
## #  with 61,620 more rows, and 11 more variables: deathtime <dttm>,
## #   admission_type <chr>, admission_location <chr>, discharge_location <chr>,
## #   insurance <chr>, language <chr>, marital_status <chr>, ethnicity <chr>,
## #   edregtime <dttm>, edouttime <dttm>, hospital_expire_flag <dbl>

age_0 %>% 
  count(marital_status, admission_location, admission_type) %>%
  arrange(desc(n))

## # A tibble: 35 x 4
##    marital_status admission_location     admission_type        n
##    <chr>          <chr>                  <chr>             <int>
##  1 <NA>           <NA>                   ELECTIVE          54358
##  2 SINGLE         <NA>                   ELECTIVE           6008
##  3 <NA>           PHYSICIAN REFERRAL     DIRECT EMER.        555
##  4 <NA>           TRANSFER FROM HOSPITAL URGENT              227
##  5 SINGLE         TRANSFER FROM HOSPITAL URGENT              126
##  6 SINGLE         PHYSICIAN REFERRAL     DIRECT EMER.        109
##  7 <NA>           PHYSICIAN REFERRAL     OBSERVATION ADMIT    95
##  8 <NA>           <NA>                   URGENT               53
##  9 SINGLE         PHYSICIAN REFERRAL     OBSERVATION ADMIT    16
## 10 MARRIED        <NA>                   ELECTIVE             15
## #  with 25 more rows
…
labcodes <- read_csv(str_c(mimic_path, "/hosp/d_labitems.csv.gz")) %>%
  print(width = Inf) 

## 
##  Column specification 
## cols(
##   itemid = col_double(),
##   label = col_character(),
##   fluid = col_character(),
##   category = col_character(),
##   loinc_code = col_character()
## )

## # A tibble: 1,625 x 5
##    itemid label                     fluid            category   loinc_code
##     <dbl> <chr>                     <chr>            <chr>      <chr>     
##  1  51898 <NA>                      Other Body Fluid Chemistry  <NA>      
##  2  51532 11-Deoxycorticosterone    Blood            Chemistry  <NA>      
##  3  51952 17-Hydroxycorticosteroids Urine            Chemistry  <NA>      
##  4  51953 17-Ketosteroids, Urine    Urine            Chemistry  <NA>      
##  5  52063 24 Hr                     Blood            Hematology <NA>      
##  6  51066 24 hr Calcium             Urine            Chemistry  <NA>      
##  7  51067 24 hr Creatinine          Urine            Chemistry  <NA>      
##  8  51068 24 hr Protein             Urine            Chemistry  <NA>      
##  9  50853 25-OH Vitamin D           Blood            Chemistry  <NA>      
## 10  51533 3t                        Blood            Chemistry  <NA>      
## #  with 1,615 more rows
…
## 
##  Column specification 
## cols(
##   itemid = col_double(),
##   label = col_character(),
##   abbreviation = col_character(),
##   linksto = col_character(),
##   category = col_character(),
##   unitname = col_character(),
##   param_type = col_character(),
##   lownormalvalue = col_double(),
##   highnormalvalue = col_double()
## )

## # A tibble: 3,835 x 9
##    itemid label                                abbreviation       linksto       
##     <dbl> <chr>                                <chr>              <chr>         
##  1 220003 ICU Admission date                   ICU Admission date datetimeevents
##  2 220045 Heart Rate                           HR                 chartevents   
##  3 220046 Heart rate Alarm - High              HR Alarm - High    chartevents   
##  4 220047 Heart Rate Alarm - Low               HR Alarm - Low     chartevents   
##  5 220048 Heart Rhythm                         Heart Rhythm       chartevents   
##  6 220050 Arterial Blood Pressure systolic     ABPs               chartevents   
##  7 220051 Arterial Blood Pressure diastolic    ABPd               chartevents   
##  8 220052 Arterial Blood Pressure mean         ABPm               chartevents   
##  9 220056 Arterial Blood Pressure Alarm - Low  ABP Alarm - Low    chartevents   
## 10 220058 Arterial Blood Pressure Alarm - High ABP Alarm - High   chartevents   
##    category            unitname param_type    lownormalvalue highnormalvalue
##    <chr>               <chr>    <chr>                  <dbl>           <dbl>
##  1 ADT                 <NA>     Date and time             NA              NA
##  2 Routine Vital Signs bpm      Numeric                   NA              NA
##  3 Alarms              bpm      Numeric                   NA              NA
##  4 Alarms              bpm      Numeric                   NA              NA
##  5 Routine Vital Signs <NA>     Text                      NA              NA
##  6 Routine Vital Signs mmHg     Numeric                   90             140
##  7 Routine Vital Signs mmHg     Numeric                   60              90
##  8 Routine Vital Signs mmHg     Numeric                   NA              NA
##  9 Alarms              mmHg     Numeric                   NA              NA
## 10 Alarms              mmHg     Numeric                   NA              NA
## #  with 3,825 more rows
…
The base data for this problem is the ICU data, which I stored in the data frame icu_stays in Question 3. The first goal is to keep only the first ICU stay for each patient, which can be done by grouping by subject_id and then keeping only the first chronological stay.

full_icu_tibble <- icu_stays %>%
  group_by(subject_id) %>%
  filter(rank(intime) == 1) %>%
  ungroup()

Next, we join to the admissions (created in Q4) and patients (from Q5): The ICU stay can be joined to admissions by hadm_id (we also use subject_id, but its not strictly necessary), and can be joined to patients by subject_id.

full_icu_tibble <- full_icu_tibble %>%
  left_join(admissions, by = c("hadm_id", "subject_id")) %>% 
  left_join(patients, by = c("subject_id")) %>%
  print()

## # A tibble: 50,048 x 26
##    subject_id hadm_id stay_id first_careunit last_careunit intime             
##         <dbl>   <dbl>   <dbl> <chr>          <chr>         <dttm>             
##  1   13713711  2.58e7  3.64e7 Trauma SICU ( Trauma SICU  2157-09-15 15:30:00
##  2   13173210  2.23e7  3.82e7 Coronary Care Coronary Car 2178-02-12 17:13:50
##  3   10213765  2.85e7  3.98e7 Trauma SICU ( Trauma SICU  2113-04-10 14:11:00
##  4   17530304  2.18e7  3.58e7 Trauma SICU ( Trauma SICU  2129-03-21 07:09:00
##  5   16766597  2.12e7  3.93e7 Trauma SICU ( Trauma SICU  2115-07-11 23:15:59
##  6   17684317  2.87e7  3.70e7 Trauma SICU ( Trauma SICU  2148-04-14 22:03:00
##  7   15693895  2.12e7  3.48e7 Surgical Inte Surgical Int 2147-06-02 23:31:46
##  8   13859862  2.50e7  3.19e7 Medical/Surgi Medical/Surg 2152-04-07 01:43:35
##  9   12200371  2.73e7  3.23e7 Medical/Surgi Medical/Surg 2146-02-18 18:14:25
## 10   13307171  2.11e7  3.80e7 Neuro Stepdown Neuro Stepdo 2145-11-22 00:54:00
## #  with 50,038 more rows, and 20 more variables: outtime <dttm>, los <dbl>,
## #   admittime <dttm>, dischtime <dttm>, deathtime <dttm>, admission_type <chr>,
## #   admission_location <chr>, discharge_location <chr>, insurance <chr>,
## #   language <chr>, marital_status <chr>, ethnicity <chr>, edregtime <dttm>,
## #   edouttime <dttm>, hospital_expire_flag <dbl>, gender <chr>,
## #   anchor_age <dbl>, anchor_year <dbl>, anchor_year_group <chr>, dod <lgl>

Now, we want to keep only adults. Since the only age recorded is the age during the anchor year, we need to calculate what the age at time of the admission was. We do this by finding how many years have passed since the anchor_year and adding those to the anchor_age. Then, we filter such that only adults (> 18) are kept.

full_icu_tibble <- full_icu_tibble %>%
  mutate(age_at_adm = year(admittime) - anchor_year + anchor_age) %>%
  filter(age_at_adm > 18) %>% 
  print()

## # A tibble: 49,971 x 27
##    subject_id hadm_id stay_id first_careunit last_careunit intime             
##         <dbl>   <dbl>   <dbl> <chr>          <chr>         <dttm>             
##  1   13713711  2.58e7  3.64e7 Trauma SICU ( Trauma SICU  2157-09-15 15:30:00
##  2   13173210  2.23e7  3.82e7 Coronary Care Coronary Car 2178-02-12 17:13:50
##  3   10213765  2.85e7  3.98e7 Trauma SICU ( Trauma SICU  2113-04-10 14:11:00
##  4   17530304  2.18e7  3.58e7 Trauma SICU ( Trauma SICU  2129-03-21 07:09:00
##  5   16766597  2.12e7  3.93e7 Trauma SICU ( Trauma SICU  2115-07-11 23:15:59
##  6   17684317  2.87e7  3.70e7 Trauma SICU ( Trauma SICU  2148-04-14 22:03:00
##  7   15693895  2.12e7  3.48e7 Surgical Inte Surgical Int 2147-06-02 23:31:46
##  8   13859862  2.50e7  3.19e7 Medical/Surgi Medical/Surg 2152-04-07 01:43:35
##  9   12200371  2.73e7  3.23e7 Medical/Surgi Medical/Surg 2146-02-18 18:14:25
## 10   13307171  2.11e7  3.80e7 Neuro Stepdown Neuro Stepdo 2145-11-22 00:54:00
## #  with 49,961 more rows, and 21 more variables: outtime <dttm>, los <dbl>,
## #   admittime <dttm>, dischtime <dttm>, deathtime <dttm>, admission_type <chr>,
## #   admission_location <chr>, discharge_location <chr>, insurance <chr>,
## #   language <chr>, marital_status <chr>, ethnicity <chr>, edregtime <dttm>,
## #   edouttime <dttm>, hospital_expire_flag <dbl>, gender <chr>,
## #   anchor_age <dbl>, anchor_year <dbl>, anchor_year_group <chr>, dod <lgl>,
## #   age_at_adm <dbl>
…
  semi_join(full_icu_tibble, by = c("subject_id", "hadm_id")) %>%
  left_join(select(full_icu_tibble, subject_id, hadm_id, intime), 
                   by = c("subject_id", "hadm_id")) %>%
  filter(charttime >= intime) %>%
  group_by(subject_id, itemid) %>%
  arrange(charttime, .by_group = TRUE) %>%   #sort within each group 
  slice_head(n = 1) %>%   
  select(-charttime, -intime) %>%
  spread(key = itemid, value = valuenum) %>%
  right_join(full_icu_tibble, by = c("subject_id", "hadm_id")) %>%
  ungroup() %>%
  rename_at(vars(as.character(lab_ids$itemid)), ~lab_ids$label) %>%
  print()

## # A tibble: 49,971 x 38
##    subject_id hadm_id Lactate Bicarbonate `Calcium, Total` Chloride Creatinine
##         <dbl>   <dbl>   <dbl>       <dbl>            <dbl>    <dbl>      <dbl>
##  1   10000032  2.91e7    NA            21              9.3      102        0.5
##  2   10000980  2.69e7    NA            23              9.2      103        2.2
##  3   10001217  2.46e7    NA            23              8.2      104        0.4
##  4   10001725  2.56e7    NA            24              9.1      106        0.8
##  5   10001884  2.62e7     1.5          33              9.8       96        1.1
##  6   10002013  2.36e7     3.3          23             NA        109        1.1
##  7   10002155  2.38e7    NA            25              8.8      106        0.9
##  8   10002223  2.25e7    NA            26              8.7      102        0.8
##  9   10002428  2.87e7     1.6          20              7.4       98        0.8
## 10   10002443  2.13e7     1.7          20              7.6      101        0.8
## #  with 49,961 more rows, and 31 more variables: Glucose <dbl>,
## #   Magnesium <dbl>, Potassium <dbl>, Sodium <dbl>, Hematocrit <dbl>, `White
## #   Blood Cells` <dbl>, stay_id <dbl>, first_careunit <chr>,
## #   last_careunit <chr>, intime <dttm>, outtime <dttm>, los <dbl>,
## #   admittime <dttm>, dischtime <dttm>, deathtime <dttm>, admission_type <chr>,
## #   admission_location <chr>, discharge_location <chr>, insurance <chr>,
## #   language <chr>, marital_status <chr>, ethnicity <chr>, edregtime <dttm>,
## #   edouttime <dttm>, hospital_expire_flag <dbl>, gender <chr>,
## #   anchor_age <dbl>, anchor_year <dbl>, anchor_year_group <chr>, dod <lgl>,
…
